id,name,model_id:id,group_id:id,perm_read,perm_write,perm_create,perm_unlink
access_asterisk_payment,asterisk.payment,model_asterisk_payment,group_payment_calc,1,1,1,1
access_asterisk_connect,asterisk.connect,model_asterisk_connect,group_asterisk_config,1,1,1,1
access_asterisk_payment1,asterisk.payment,model_asterisk_payment,group_asterisk_config,1,1,1,1
access_asterisk_connect1,asterisk.connect,model_asterisk_connect,group_payment_calc,1,1,1,1
